{
  "version": 1,
  "author": "Kirill Mikhailov",
  "editor": "wokwi",
  "parts": [
    {
      "type": "board-esp32-c3-rust-1",
      "id": "esp",
      "top": 69.91,
      "left": -19.1,
      "rotate": 90,
      "attrs": { "builder": "rust-std-esp" }
    },
    {
      "type": "wokwi-ili9341",
      "id": "lcd1",
      "top": -238.07,
      "left": -40.23,
      "rotate": 270,
      "attrs": { "flipVertical": "1" }
    }
  ],
  "connections": [
    [ "esp:21", "$serialMonitor:RX", "", [] ],
    [ "esp:20", "$serialMonitor:TX", "", [] ],
    [ "lcd1:GND", "esp:GND", "grey", [ "h89.68", "v198.97", "h-203.21" ] ],
    [ "lcd1:VCC", "esp:3V3", "purple", [ "h22.34", "v178.7", "h-116.67" ] ],
    [ "lcd1:CS", "esp:2", "orange", [ "h9.01", "v133.23", "h-228.14" ] ],
    [ "lcd1:RST", "esp:18", "blue", [ "h69.01", "v198.17", "h-220.94" ] ],
    [ "lcd1:D/C", "esp:3", "yellow", [ "h37.67", "v165.1", "h-247.87" ] ],
    [ "lcd1:MOSI", "esp:7", "white", [ "h49.01", "v187.38", "h-240.01" ] ],
    [ "lcd1:SCK", "esp:6", "green", [ "h59.67", "v204.31", "h-239.99", "v54.73" ] ],
    [ "esp:4", "lcd1:LED", "cyan", [ "v-129.56", "h-193.01", "v-236", "h357.33", "v92.67" ] ]
  ],
  "serialMonitor": { "display": "auto" },
  "dependencies": {}
}