{
  "version": 1,
  "author": "Wojciech Zabołotny",
  "editor": "wokwi",
  "parts": [
    {
      "type": "wokwi-esp32-devkit-v1",
      "id": "esp",
      "top": -20.4,
      "left": -14.95,
      "attrs": { "builder": "rust-std-esp" }
    },
    {
      "type": "wokwi-pushbutton",
      "id": "btn1",
      "top": 70.39,
      "left": -153.94,
      "attrs": { "color": "red", "bounce": "0" }
    },
    { "type": "wokwi-gnd", "id": "gnd1", "top": 113.48, "left": -60.6, "attrs": {} },
    {
      "type": "wokwi-resistor",
      "id": "r1",
      "top": 11.79,
      "left": -155.86,
      "attrs": { "value": "1000" }
    },
    { "type": "wokwi-vcc", "id": "vcc1", "top": -28.34, "left": -173.9, "attrs": {} },
    {
      "type": "board-ssd1306",
      "id": "oled1",
      "top": -27.02,
      "left": 118.81,
      "attrs": { "i2cAddress": "0x3c" }
    },
    { "type": "wokwi-gnd", "id": "gnd2", "top": -75.46, "left": 99.04, "attrs": {} },
    { "type": "wokwi-vcc", "id": "vcc2", "top": -114.83, "left": 152.09, "attrs": {} }
  ],
  "connections": [
    [ "esp:TX0", "$serialMonitor:RX", "", [] ],
    [ "esp:RX0", "$serialMonitor:TX", "", [] ],
    [ "btn1:1.r", "r1:2", "green", [ "v-46.04", "h-0.82", "v-19.91" ] ],
    [ "vcc1:VCC", "r1:1", "red", [ "v0" ] ],
    [ "btn1:2.r", "gnd1:GND", "green", [ "h0" ] ],
    [ "esp:D25", "btn1:1.r", "green", [ "h0" ] ],
    [ "gnd2:GND", "oled1:GND", "black", [ "v-0.98", "h47.74" ] ],
    [ "oled1:VCC", "vcc2:VCC", "red", [ "v-66.76", "h-5.21" ] ],
    [ "esp:D23", "oled1:SCL", "green", [ "v-50.31", "h89.53" ] ],
    [ "esp:D22", "oled1:SDA", "green", [ "h16.48", "v-50.03", "h82.88" ] ]
  ],
  "serialMonitor": { "display": "terminal" },
  "dependencies": {}
}