{
  "version": 1,
  "author": "Wojciech Zabołotny",
  "editor": "wokwi",
  "parts": [
    {
      "type": "wokwi-esp32-devkit-v1",
      "id": "esp",
      "top": 3.72,
      "left": 49.86,
      "attrs": { "builder": "rust-std-esp" }
    },
    {
      "type": "wokwi-pushbutton",
      "id": "btn1",
      "top": 80.63,
      "left": -78.01,
      "attrs": { "color": "green" }
    },
    { "type": "wokwi-gnd", "id": "gnd1", "top": 135.39, "left": -108.42, "attrs": {} }
  ],
  "connections": [
    [ "esp:TX0", "$serialMonitor:RX", "", [] ],
    [ "esp:RX0", "$serialMonitor:TX", "", [] ],
    [ "esp:D25", "btn1:1.r", "green", [ "h0" ] ],
    [ "btn1:1.l", "gnd1:GND", "green", [ "h0" ] ]
  ],
  "serialMonitor": { "display": "terminal" },
  "dependencies": {}
}